Sample quantitative trading strategy — tradeStrategyDY • RTL
…
par2value
Value of second parameter e.g. long MA

    Value

Dataframe with indicators, signals, trades and profit and loss.

    Author

    Philippe Cote

    Examples

tradeStrategyDY(data = RTL::stocks$ry, par1value = 50, par2value = 200)
#> # A tibble: 5,741 × 20
#>    Date        Open  High   Low Close Volume Dividend retClCl  retOpCl  retClOp
#>    <date>     <dbl> <dbl> <dbl> <dbl>  <dbl>    <dbl>   <dbl>    <dbl>    <dbl>
#>  1 2000-01-21  4.13  4.13  4.04  4.08  54400   0.0335 NA      -0.0123  NA      
#>  2 2000-01-24  4.07  4.07  3.93  3.98  50400   0.0344 -0.0245 -0.0226  -0.00245
#>  3 2000-01-25  3.99  4.08  3.98  4.08  39600   0.0335  0.0251  0.0221   0.00251
#>  4 2000-01-26  4.06  4.2   4.06  4.2   40000   0.0325  0.0294  0.0333  -0.00490
#>  5 2000-01-27  4.24  4.57  4.24  4.53 270800   0.0301  0.0786  0.0640   0.00952
#>  6 2000-01-28  4.5   4.5   4.35  4.36  54400   0.0313 -0.0375 -0.0321  -0.00662
#>  7 2000-01-31  4.34  4.34  4.22  4.28  24000   0.0319 -0.0183 -0.0140  -0.00459
#>  8 2000-02-01  4.24  4.28  4.2   4.28  14400   0.0319  0       0.00935 -0.00935
#>  9 2000-02-02  4.26  4.26  4.16  4.18  23600   0.0327 -0.0234 -0.0191  -0.00467
#> 10 2000-02-03  4.21  4.21  4.11  4.11 108000   0.0333 -0.0167 -0.0243   0.00718
#> # … with 5,731 more rows, and 10 more variables: par1 <dbl>, par2 <dbl>,
#> #   signal <dbl>, trade <dbl>, pos <dbl>, ret_new <dbl>, ret_exist <dbl>,
#> #   ret_others <dbl>, ret <dbl>, cumeq <dbl>
…
