Sample Quantitative Trading strategy — tradeStrategySMA • RTL
…
par2value
Value of second parameter e.g. long MA

    Value

Dataframe with indicators, signals, trades and profit and loss.

    Author

    Philippe Cote

    Examples

tradeStrategySMA(data = RTL::uso, par1value = 50, par2value = 200)
#> # A tibble: 2,735 × 19
#>    Date        Open  High   Low Close  Volume  retClCl   retOpCl  retClOp  par1
#>    <date>     <dbl> <dbl> <dbl> <dbl>   <dbl>    <dbl>     <dbl>    <dbl> <dbl>
#>  1 2012-01-03  314.  318   314.  318. 1546238 NA        0.0113   NA          NA
#>  2 2012-01-04  316   320.  315.  318. 1726600  0.00202  0.00679  -0.00479    NA
#>  3 2012-01-05  316.  319.  313.  313. 1474950 -0.0151  -0.00817  -0.00704    NA
#>  4 2012-01-06  315.  315.  311.  314. 1220075  0.00128 -0.00433   0.00562    NA
#>  5 2012-01-09  313.  313.  308.  313.  938663 -0.00357 -0.000768 -0.00280    NA
#>  6 2012-01-10  317.  318.  315.  315.  882788  0.00665 -0.00585   0.0125     NA
#>  7 2012-01-11  313.  314.  310.  311. 1107638 -0.0107  -0.00437  -0.00635    NA
#>  8 2012-01-12  314.  317.  304.  304. 2293825 -0.0221  -0.0323    0.00951    NA
#>  9 2012-01-13  303.  306.  301.  305. 1408650  0.00263  0.00681  -0.00420    NA
#> 10 2012-01-17  309.  311.  306.  310. 1271813  0.0165   0.00516   0.0113     NA
#> # … with 2,725 more rows, and 9 more variables: par2 <dbl>, signal <dbl>,
#> #   trade <dbl>, pos <dbl>, ret_new <dbl>, ret_exist <dbl>, ret_others <dbl>,
#> #   ret <dbl>, cumeq <dbl>
…
